…
Найти самого высокого персонажа.

``` r
starwars_data %>% filter(!is.na(height)) %>% slice_max(height, n = 1, with_ties = FALSE) %>% pull(name)
```

    [1] "Yarael Poof"

Найти всех персонажей ниже 170

    > starwars_data %>%
    +     filter(!is.na(height), height < 170) %>%
    +     select(name, height)
    # A tibble: 22 × 2
       name                  height
       <chr>                  <int>
     1 C-3PO                    167
     2 R2-D2                     96
     3 Leia Organa              150
     4 Beru Whitesun Lars       165
     5 R5-D4                     97
     6 Yoda                      66
     7 Mon Mothma               150
     8 Wicket Systri Warrick     88
     9 Nien Nunb                160
    10 Watto                    137
    # ℹ 12 more rows
    # ℹ Use `print(n = ...)` to see more rows
…
    [1] 38

``` r
starwars_data %>% filter(!is.na(height)) %>% slice_max(height, n = 1, with_ties = FALSE) %>% pull(name)
```

    [1] "Yarael Poof"

``` r
starwars_data %>%
filter(!is.na(height), height < 170) %>%
select(name, height)
```

    # A tibble: 22 × 2
       name                  height
       <chr>                  <int>
     1 C-3PO                    167
     2 R2-D2                     96
     3 Leia Organa              150
     4 Beru Whitesun Lars       165
     5 R5-D4                     97
     6 Yoda                      66
     7 Mon Mothma               150
     8 Wicket Systri Warrick     88
     9 Nien Nunb                160
    10 Watto                    137
    # ℹ 12 more rows

``` r
starwars_data %>%
mutate(
bmi = mass / ( (height / 100)^2 )
) %>%
select(name, mass, height, bmi)
```

    # A tibble: 87 × 4
       name                mass height   bmi
       <chr>              <dbl>  <int> <dbl>
     1 Luke Skywalker        77    172  26.0
     2 C-3PO                 75    167  26.9
     3 R2-D2                 32     96  34.7
     4 Darth Vader          136    202  33.3
     5 Leia Organa           49    150  21.8
     6 Owen Lars            120    178  37.9
     7 Beru Whitesun Lars    75    165  27.5
     8 R5-D4                 32     97  34.0
     9 Biggs Darklighter     84    183  25.1
    10 Obi-Wan Kenobi        77    182  23.2
    # ℹ 77 more rows
…
Подсчитать среднюю длину имени в каждой расе вселенной Звездных войн.

``` r
starwars_data %>%
mutate(name_length = nchar(name)) %>%
filter(!is.na(species)) %>%
group_by(species) %>%
summarise(
avg_name_length = mean(name_length, na.rm = TRUE),
count = n()
) %>%
arrange(desc(avg_name_length))
```

    # A tibble: 37 × 3
       species   avg_name_length count
       <chr>               <dbl> <int>
     1 Ewok                 21       1
     2 Hutt                 21       1
     3 Geonosian            17       1
     4 Besalisk             15       1
     5 Mirialan             14       2
     6 Toong                14       1
     7 Aleena               12       1
     8 Cerean               12       1
     9 Gungan               11.7     3
    10 Human                11.3    35
    # ℹ 27 more rows
…
